<?xml version="1.0" encoding="UTF-8"?>
<kml xmlns:atom="http://www.w3.org/2005/Atom" xmlns="http://www.opengis.net/kml/2.2">
  <Document>
    <atom:author>
      <atom:name class="text">TRAIL.PL</atom:name>
    </atom:author>
    <atom:link href="http://trail.pl"/>
    <description><![CDATA[Szlak z serwisu TRAIL.PL]]></description>
    <name>z-rajczy-do-chaty-na-zagroniu-10624.kml</name>
    <Style id="waypointStyle">
      <IconStyle>
        <Icon>
          <href>http://trail.pl/images/ico-marker.png</href>
        </Icon>
      </IconStyle>
    </Style>
    <Style id="beginStyle">
      <IconStyle>
        <Icon>
          <href>http://trail.pl/images/ico-marker-begin.png</href>
        </Icon>
      </IconStyle>
    </Style>
    <Style id="endStyle">
      <IconStyle>
        <Icon>
          <href>http://trail.pl/images/ico-marker-end.png</href>
        </Icon>
      </IconStyle>
    </Style>
    <Style id="trackStyle">
      <LineStyle>
        <color>FF2530E4</color>
        <width>5</width>
      </LineStyle>
    </Style>
    <Folder>
      <name>Z Rajczy do Chaty na Zagroniu</name>
      <atom:link href="http://trail.pl/szlaki/z-rajczy-do-chaty-na-zagroniu-10624"/>
      <open>1</open>
      <Placemark><name>Początek szlaku 19°06′06″, 49°30′14″</name><styleUrl>#beginStyle</styleUrl><Point>
<coordinates>19.10153,49.50387</coordinates>
</Point>
</Placemark>
      <Placemark><name>Chata na Zagroniu</name><styleUrl>#endStyle</styleUrl><Point>
<coordinates>19.15406,49.50094</coordinates>
</Point>
</Placemark>
      <Placemark><name>ścieżka GPS</name><styleUrl>#trackStyle</styleUrl><LineString>
<coordinates>19.10153,49.50387 19.10278,49.50359 19.10544,49.50317 19.10758,49.50099 19.11003,49.49991 19.11269,49.49876 19.11396,49.49825 19.11479,49.49779 19.11589,49.49706 19.11628,49.4967 19.11842,49.49633 19.12074,49.49499 19.12213,49.495 19.12381,49.49525 19.12589,49.49527 19.12692,49.49503 19.12936,49.49532 19.13024,49.49513 19.1308,49.49485 19.13231,49.49504 19.13685,49.49426 19.13718,49.49432 19.13758,49.49426 19.14097,49.4934 19.14428,49.49437 19.14589,49.49373 19.1499,49.49489 19.15256,49.49532 19.15247,49.49588 19.15359,49.4972 19.1543,49.49879 19.15295,49.49932 19.15406,49.50094</coordinates>
</LineString>
</Placemark>
    </Folder>
  </Document>
</kml>
